[
    {
        "Id": 1,
        "Value": "Started"
    },
    {
        "Id": 2,
        "Value": "Finished"
    },
    {
        "Id": 3,
        "Value": "Canceled"
    },
    {
        "Id": 4,
        "Value": "Created"
    }
]

